        |\                       
        | \        /|       
        |  \____  / |         
       /|__/AMMA\/  |         
     /AMMMMMMMMMMM\_|               
 ___/AMMMMMMMMMMMMMMA              
 \   |MVKMMM/ o\MMMMM\               
  \__/MMMMMM\  /MMMMMM---            
  |MMMMMMMMMMMMMMMMMMM|  /               
  |MMMM/o \MMMM  MMMMM/              
  /\MMM\  /MMM   MMMMMM         
 /  |MMMMMMM    MMMMMMM
 /___/MMMMMMMMMMMMMMMM|
     \VMM/\MMMMMMM\  |         
      \V/  \MMMMMMM\ |
        |  /MMMV' \ \|         
        | /   \    \     
        |/     \    \
                \    \
                 \    \
%
        |\                       
        | \        /|       
        |  \____  / |         
       /|__/AMMA\/  |         
     /AMMMMMMMMMMM\_|               
 ___/AMMMMMMMMMMMMMMA              
 \   |MVKMMM/    \MMM\               
  \__/MMMMMM\  X /MMMM---            
  |MMMMMMMMMMMMMMMMMMM|  /               
  |MMMM/    \MMMMMMMMMMM/              
  /\MMM\ X  /MMMMMM  MM      
 /  |MMMMMMMMMMMM    MM
 /___/MMMMMMMMM     MM|
     \VMM/\MMMM    MM  |         
      \V/  \MMMMMMM\ |
        |  /MMMV' \ \|         
        | /   \    \     
        |/     \    \
                \    \
                 \    \
