                                       
                      ~~                 
                     / ~~~                
            /\__/\  /   ~~              
           /      \/   /                  
         o( O  O  )o_/                                                 
           \_____/                     
           o    o                      
%                  
                                       
                      ~~                 
                     / ~~~                
            /\__/\  /   ~~              
           /      \/   /                  
         o( x  X  )o_/                                                 
           \_____/                     
           o    o                      
