         _                 _               
        /*\               /*\              
       /~**\             /**~\            
      /M\***\   /\__/\  /***/M\             
     /MM/\***\ /      \/***/\MM\                  
     \_/  \**o( O  O  )o*/  \_/                                         
               \_____/                     
                o    o             
%

         _                 _               
        /*\               /*\              
       /~**\             /**~\            
      /M\***\   /\__/\  /***/M\             
     /MM/\***\ /      \/***/\MM\                  
     \_/  \**o( x  X  )o*/  \_/                                         
               \_____/                     
                o    o             
                       